[gd_scene load_steps=6 format=2]

[ext_resource path="res://Enemy_Animation.tscn" type="PackedScene" id=1]
[ext_resource path="res://MonsterSound.tscn" type="PackedScene" id=2]
[ext_resource path="res://InimigoTest.gd" type="Script" id=3]

[sub_resource type="CapsuleShape2D" id=1]
radius = 15.9671
height = 0.0

[sub_resource type="CircleShape2D" id=2]
radius = 80.3756

[node name="Inimigo" type="KinematicBody2D"]
script = ExtResource( 3 )

[node name="Sprite" type="Sprite" parent="."]
position = Vector2( -0.264824, -0.794598 )

[node name="EnemyAnimation" parent="Sprite" instance=ExtResource( 1 )]
position = Vector2( 0.264824, 0.794598 )
scale = Vector2( 0.3, 0.3 )

[node name="CollisionShape2D" type="CollisionShape2D" parent="."]
shape = SubResource( 1 )

[node name="Area2D" type="Area2D" parent="."]

[node name="CollisionShape2D" type="CollisionShape2D" parent="Area2D"]
position = Vector2( 0.264862, 0 )
shape = SubResource( 2 )

[node name="Monster_Sleeping" parent="." instance=ExtResource( 2 )]
position = Vector2( -1.26349, 0.108467 )

[connection signal="body_entered" from="Area2D" to="." method="_on_Area2D_body_entered"]
[connection signal="body_exited" from="Area2D" to="." method="_on_Area2D_body_exited"]

[editable path="Sprite/EnemyAnimation"]
