[gd_scene load_steps=2 format=2]

[ext_resource path="res://mixkit-electric-static-1453.wav" type="AudioStream" id=1]

[node name="Eletricity_Static" type="Node2D"]

[node name="AudioStreamPlayer2D" type="AudioStreamPlayer2D" parent="."]
stream = ExtResource( 1 )
autoplay = true
attenuation = 25.9921
