[gd_resource type="AtlasTexture" load_steps=2 format=2]

[ext_resource path="res://Assets/Background Assets/AlienSprite.png" type="Texture" id=1]

[resource]
atlas = ExtResource( 1 )
region = Rect2( 395, 16, 171, 176 )
